…
### Which countries have the largest populations?

<img src="images/arrange.png" width="95%" />

<img src="images/desc.png" width="95%" />

<div class="tutorial-exercise" data-label="ex4" data-caption="Code" data-completion="1" data-diagnostics="1" data-startover="1" data-lines="0">

```text
gapminder
```

```
# A tibble: 1,704 x 6
   country     continent  year lifeExp      pop gdpPercap
   <fct>       <fct>     <int>   <dbl>    <int>     <dbl>
 1 Afghanistan Asia       1952    28.8  8425333      779.
 2 Afghanistan Asia       1957    30.3  9240934      821.
 3 Afghanistan Asia       1962    32.0 10267083      853.
 4 Afghanistan Asia       1967    34.0 11537966      836.
 5 Afghanistan Asia       1972    36.1 13079460      740.
 6 Afghanistan Asia       1977    38.4 14880372      786.
 7 Afghanistan Asia       1982    39.9 12881816      978.
 8 Afghanistan Asia       1987    40.8 13867957      852.
 9 Afghanistan Asia       1992    41.7 16317921      649.
10 Afghanistan Asia       1997    41.8 22227415      635.
# ... with 1,694 more rows
```
…
</div>

### Which countries had the largest population _in 2007_?

<img src="images/filter.png" width="95%" />

<div class="tutorial-exercise" data-label="ex5" data-caption="Code" data-completion="1" data-diagnostics="1" data-startover="1" data-lines="0">

```text
gapminder2007 <- gapminder
gapminder2007
```

```
# A tibble: 1,704 x 6
   country     continent  year lifeExp      pop gdpPercap
   <fct>       <fct>     <int>   <dbl>    <int>     <dbl>
 1 Afghanistan Asia       1952    28.8  8425333      779.
 2 Afghanistan Asia       1957    30.3  9240934      821.
 3 Afghanistan Asia       1962    32.0 10267083      853.
 4 Afghanistan Asia       1967    34.0 11537966      836.
 5 Afghanistan Asia       1972    36.1 13079460      740.
 6 Afghanistan Asia       1977    38.4 14880372      786.
 7 Afghanistan Asia       1982    39.9 12881816      978.
 8 Afghanistan Asia       1987    40.8 13867957      852.
 9 Afghanistan Asia       1992    41.7 16317921      649.
10 Afghanistan Asia       1997    41.8 22227415      635.
# ... with 1,694 more rows
```
…
### A better way

Use the pipe operator (%>%) to compose tidyverse functions.

<div class="tutorial-exercise" data-label="ex6" data-caption="Code" data-completion="1" data-diagnostics="1" data-startover="1" data-lines="0">

```text
gapminder2007 <- filter(gapminder, year == 2007)
arrange(gapminder2007, desc(pop))
```

```
# A tibble: 142 x 6
   country       continent  year lifeExp        pop gdpPercap
   <fct>         <fct>     <int>   <dbl>      <int>     <dbl>
 1 China         Asia       2007    73.0 1318683096     4959.
 2 India         Asia       2007    64.7 1110396331     2452.
 3 United States Americas   2007    78.2  301139947    42952.
 4 Indonesia     Asia       2007    70.6  223547000     3541.
 5 Brazil        Americas   2007    72.4  190010647     9066.
 6 Pakistan      Asia       2007    65.5  169270617     2606.
 7 Bangladesh    Asia       2007    64.1  150448339     1391.
 8 Nigeria       Africa     2007    46.9  135031164     2014.
 9 Japan         Asia       2007    82.6  127467972    31656.
10 Mexico        Americas   2007    76.2  108700891    11978.
# ... with 132 more rows
```
…
</div>


### Which countries had the largest life expectancy in 2007?

<img src="images/select.png" width="95%" />

<div class="tutorial-exercise" data-label="ex7" data-caption="Code" data-completion="1" data-diagnostics="1" data-startover="1" data-lines="0">

```text
gapminder
```

```
# A tibble: 1,704 x 6
   country     continent  year lifeExp      pop gdpPercap
   <fct>       <fct>     <int>   <dbl>    <int>     <dbl>
 1 Afghanistan Asia       1952    28.8  8425333      779.
 2 Afghanistan Asia       1957    30.3  9240934      821.
 3 Afghanistan Asia       1962    32.0 10267083      853.
 4 Afghanistan Asia       1967    34.0 11537966      836.
 5 Afghanistan Asia       1972    36.1 13079460      740.
 6 Afghanistan Asia       1977    38.4 14880372      786.
 7 Afghanistan Asia       1982    39.9 12881816      978.
 8 Afghanistan Asia       1987    40.8 13867957      852.
 9 Afghanistan Asia       1992    41.7 16317921      649.
10 Afghanistan Asia       1997    41.8 22227415      635.
# ... with 1,694 more rows
```
…
</div>

### What is the gdp of each country?

<img src="images/mutate.png" width="95%" />

<div class="tutorial-exercise" data-label="ex8" data-caption="Code" data-completion="1" data-diagnostics="1" data-startover="1" data-lines="0">

```text
gapminder
```

```
# A tibble: 1,704 x 6
   country     continent  year lifeExp      pop gdpPercap
   <fct>       <fct>     <int>   <dbl>    <int>     <dbl>
 1 Afghanistan Asia       1952    28.8  8425333      779.
 2 Afghanistan Asia       1957    30.3  9240934      821.
 3 Afghanistan Asia       1962    32.0 10267083      853.
 4 Afghanistan Asia       1967    34.0 11537966      836.
 5 Afghanistan Asia       1972    36.1 13079460      740.
 6 Afghanistan Asia       1977    38.4 14880372      786.
 7 Afghanistan Asia       1982    39.9 12881816      978.
 8 Afghanistan Asia       1987    40.8 13867957      852.
 9 Afghanistan Asia       1992    41.7 16317921      649.
10 Afghanistan Asia       1997    41.8 22227415      635.
# ... with 1,694 more rows
```
…
### What was the maximum gdp?

<img src="images/summarise.png" width="95%" />

<div class="tutorial-exercise" data-label="ex9" data-caption="Code" data-completion="1" data-diagnostics="1" data-startover="1" data-lines="0">

```text
gapminder %>% 
  mutate(gdp = pop * gdpPercap)
```

```
# A tibble: 1,704 x 7
   country     continent  year lifeExp      pop gdpPercap          gdp
   <fct>       <fct>     <int>   <dbl>    <int>     <dbl>        <dbl>
 1 Afghanistan Asia       1952    28.8  8425333      779.  6567086330.
 2 Afghanistan Asia       1957    30.3  9240934      821.  7585448670.
 3 Afghanistan Asia       1962    32.0 10267083      853.  8758855797.
 4 Afghanistan Asia       1967    34.0 11537966      836.  9648014150.
 5 Afghanistan Asia       1972    36.1 13079460      740.  9678553274.
 6 Afghanistan Asia       1977    38.4 14880372      786. 11697659231.
 7 Afghanistan Asia       1982    39.9 12881816      978. 12598563401.
 8 Afghanistan Asia       1987    40.8 13867957      852. 11820990309.
 9 Afghanistan Asia       1992    41.7 16317921      649. 10595901589.
10 Afghanistan Asia       1997    41.8 22227415      635. 14121995875.
# ... with 1,694 more rows
```
…
</div>

### What was the first gdp? The last gdp?

<div class="tutorial-exercise" data-label="ex10" data-caption="Code" data-completion="1" data-diagnostics="1" data-startover="1" data-lines="0">

```text
gapminder %>% 
  mutate(gdp = pop * gdpPercap)
```

```
# A tibble: 1,704 x 7
   country     continent  year lifeExp      pop gdpPercap          gdp
   <fct>       <fct>     <int>   <dbl>    <int>     <dbl>        <dbl>
 1 Afghanistan Asia       1952    28.8  8425333      779.  6567086330.
 2 Afghanistan Asia       1957    30.3  9240934      821.  7585448670.
 3 Afghanistan Asia       1962    32.0 10267083      853.  8758855797.
 4 Afghanistan Asia       1967    34.0 11537966      836.  9648014150.
 5 Afghanistan Asia       1972    36.1 13079460      740.  9678553274.
 6 Afghanistan Asia       1977    38.4 14880372      786. 11697659231.
 7 Afghanistan Asia       1982    39.9 12881816      978. 12598563401.
 8 Afghanistan Asia       1987    40.8 13867957      852. 11820990309.
 9 Afghanistan Asia       1992    41.7 16317921      649. 10595901589.
10 Afghanistan Asia       1997    41.8 22227415      635. 14121995875.
# ... with 1,694 more rows
```
…
</div>

### What was the cumulative annual growth for each country between 1952 and 1957?

<div class="tutorial-exercise" data-label="ex12" data-caption="Code" data-completion="1" data-diagnostics="1" data-startover="1" data-lines="0">

```text
gapminder %>% 
  mutate(gdp = pop * gdpPercap) %>% 
  group_by(country) %>% 
  summarise(gdp1952 = first(gdp), gdp2007 = last(gdp))
```

```
# A tibble: 142 x 3
   country           gdp1952       gdp2007
   <fct>               <dbl>         <dbl>
 1 Afghanistan   6567086330.  31079291949.
 2 Albania       2053669902.  21376411360.
 3 Algeria      22725632678. 207444851958.
 4 Angola       14899557133.  59583895818.
 5 Argentina   105676319105. 515033625357.
 6 Australia    87256254102. 703658358894.
 7 Austria      42516266683. 296229400691.
 8 Bahrain       1188460759.  21112675360.
 9 Bangladesh   32082059995. 209311822134.
10 Belgium      72838686716. 350141166520.
# ... with 132 more rows
```
…
```r
ggplot(data = <DATA>) +
  <GEOM_FUNCTION>(mapping = aes(<MAPPINGS>))
```

<div class="tutorial-exercise" data-label="ex14" data-caption="Code" data-completion="1" data-diagnostics="1" data-startover="1" data-lines="0">

```text
gapminder
```

```
# A tibble: 1,704 x 6
   country     continent  year lifeExp      pop gdpPercap
   <fct>       <fct>     <int>   <dbl>    <int>     <dbl>
 1 Afghanistan Asia       1952    28.8  8425333      779.
 2 Afghanistan Asia       1957    30.3  9240934      821.
 3 Afghanistan Asia       1962    32.0 10267083      853.
 4 Afghanistan Asia       1967    34.0 11537966      836.
 5 Afghanistan Asia       1972    36.1 13079460      740.
 6 Afghanistan Asia       1977    38.4 14880372      786.
 7 Afghanistan Asia       1982    39.9 12881816      978.
 8 Afghanistan Asia       1987    40.8 13867957      852.
 9 Afghanistan Asia       1992    41.7 16317921      649.
10 Afghanistan Asia       1997    41.8 22227415      635.
# ... with 1,694 more rows
```
…
### Scaled data

Let's scale the data within each country to make growth easier to compare

<div class="tutorial-exercise" data-label="ex15" data-caption="Code" data-completion="1" data-diagnostics="1" data-startover="1" data-lines="0">

```text
gapminder %>% 
  filter(country %in% top_10) %>% 
  mutate(gdp = pop * gdpPercap)
```

```
# A tibble: 120 x 7
   country continent  year lifeExp       pop gdpPercap     gdp
   <fct>   <fct>     <int>   <dbl>     <int>     <dbl>   <dbl>
 1 Brazil  Americas   1952    50.9  56602560     2109. 1.19e11
 2 Brazil  Americas   1957    53.3  65551171     2487. 1.63e11
 3 Brazil  Americas   1962    55.7  76039390     3337. 2.54e11
 4 Brazil  Americas   1967    57.6  88049823     3430. 3.02e11
 5 Brazil  Americas   1972    59.5 100840058     4986. 5.03e11
 6 Brazil  Americas   1977    61.5 114313951     6660. 7.61e11
 7 Brazil  Americas   1982    63.3 128962939     7031. 9.07e11
 8 Brazil  Americas   1987    65.2 142938076     7807. 1.12e12
 9 Brazil  Americas   1992    67.1 155975974     6950. 1.08e12
10 Brazil  Americas   1997    69.4 168546719     7958. 1.34e12
# ... with 110 more rows
```
…
